{
  "project_info": {
    "project_number": "954274357044",
    "firebase_url": "https://testapp-ac5ec.firebaseio.com",
    "project_id": "testapp-ac5ec",
    "storage_bucket": "testapp-ac5ec.appspot.com"
  },
  "client": [
    {
      "client_info": {
        "mobilesdk_app_id": "1:954274357044:android:bd9f5054b7a86970",
        "android_client_info": {
          "package_name": "com.example.rus1f1kat0r.testapp"
        }
      },
      "oauth_client": [
        {
          "client_id": "954274357044-7c2up8hm962i713mkitd6n1ld6v83ct4.apps.googleusercontent.com",
          "client_type": 3
        }
      ],
      "api_key": [
        {
          "current_key": "AIzaSyCA8rvKcknvl_jOx1-XJJKnaQZRnjDenw4"
        }
      ],
      "services": {
        "analytics_service": {
          "status": 1
        },
        "appinvite_service": {
          "status": 1,
          "other_platform_oauth_client": []
        },
        "ads_service": {
          "status": 2
        }
      }
    }
  ],
  "configuration_version": "1"
}